<?xml version="1.0" encoding="utf-8"?>
<!-- Generator: Adobe Illustrator 14.0.0, SVG Export Plug-In  -->
<!DOCTYPE svg PUBLIC "-//W3C//DTD SVG 1.1//EN" "http://www.w3.org/Graphics/SVG/1.1/DTD/svg11.dtd" [
	<!ENTITY ns_flows "http://ns.adobe.com/Flows/1.0/">
]>
<svg version="1.1"
	 xmlns="http://www.w3.org/2000/svg" xmlns:xlink="http://www.w3.org/1999/xlink" xmlns:a="http://ns.adobe.com/AdobeSVGViewerExtensions/3.0/"
	 x="0px" y="0px" width="30px" height="30px" viewBox="7.187 3.813 30 30" enable-background="new 7.187 3.813 30 30"
	 xml:space="preserve">
<defs>
</defs>
<path display="none" fill="#8D428F" d="M43.312,31.313c0,3.313-2.687,6-6,6H7.875c-3.313,0-6-2.687-6-6V8.501c0-3.313,2.687-6,6-6
	h29.438c3.313,0,6,2.687,6,6V31.313z"/>
<path display="none" fill="#AFCD73" d="M22.188,5.297c-7.454,0-13.518,6.063-13.518,13.517S14.733,32.33,22.188,32.33
	c7.453,0,13.517-6.063,13.517-13.517S29.64,5.297,22.188,5.297z"/>
<path display="none" fill="#FFFFFF" d="M27.839,19.73c0,0.356-0.289,0.646-0.646,0.646H23.75v3.443c0,0.355-0.289,0.645-0.645,0.645
	h-1.836c-0.356,0-0.645-0.289-0.645-0.645v-3.443h-3.443c-0.356,0-0.645-0.289-0.645-0.646v-1.835c0-0.356,0.288-0.646,0.645-0.646
	h3.443v-3.443c0-0.356,0.288-0.646,0.645-0.646h1.836c0.356,0,0.645,0.289,0.645,0.646v3.443h3.443c0.357,0,0.646,0.289,0.646,0.646
	V19.73z"/>
<circle display="none" fill="#33AF8F" cx="22.187" cy="18.813" r="10"/>
<rect y="12.309" display="none" fill="none" width="44.375" height="41.504"/>
<text transform="matrix(1 0 0 1 19.731 25.8691)" display="none" fill="#FFFFFF" font-family="'Calibri-Bold'" font-size="20">i</text>
<path display="none" fill="#F1B23E" d="M22.187,5.296c-7.453,0-13.518,6.064-13.518,13.518c0,7.454,6.064,13.518,13.518,13.518
	s13.518-6.063,13.518-13.518C35.705,11.36,29.64,5.296,22.187,5.296z"/>
<path display="none" fill="#FFFFFF" d="M28.333,17.566c-0.873,0.875-2.158,1.087-3.232,0.64l-1.559,1.644l4.639,4.234
	c0.149,0.135,0.172,0.344,0.052,0.464l-1.237,1.239c-0.119,0.119-0.329,0.096-0.465-0.053L22.33,21.13l-3.855,4.07l-0.01-0.013
	c-0.541,0.499-1.382,0.487-1.906-0.037c-0.525-0.523-0.538-1.366-0.039-1.907l-0.002-0.001l0.025-0.026
	c0.006-0.005,0.009-0.011,0.016-0.016c0.019-0.019,0.039-0.036,0.06-0.054l4.05-3.84L19.3,17.808
	c-0.488-0.359-1.014-0.576-1.493-0.63c0,0-1.675-0.097-1.804,2.464c-0.003,0.055-0.039,0.063-0.082,0.021l-0.501-0.5
	c-0.044-0.044-0.097-0.126-0.112-0.182c-0.123-0.416-0.48-2.041,0.876-3.427l1.729-1.729c0.035-0.036,0.067-0.062,0.07-0.061
	c0.002,0.003,0.052,0.015,0.108,0.016c0.222,0.01,0.447-0.072,0.618-0.243c0.176-0.176,0.257-0.41,0.244-0.639
	c-0.003-0.057,0.017-0.132,0.053-0.167l0.941-0.942c0.037-0.036,0.1-0.029,0.144,0.015l1.483,1.481
	c0.045,0.044,0.05,0.108,0.014,0.146c0,0-0.528,0.527-0.715,0.716c-0.035,0.036-0.094,0.096-0.128,0.132l-0.097,0.096
	c-0.037,0.036-0.11,0.056-0.167,0.054c-0.229-0.014-0.464,0.066-0.64,0.243c-0.196,0.195-0.279,0.47-0.24,0.724
	c0.051,0.436,0.238,0.909,0.543,1.358l1.641,1.495l1.724-1.635c-0.448-1.073-0.235-2.357,0.638-3.23
	c0.908-0.907,2.26-1.103,3.357-0.584l-1.322,1.321l0.001,0.001h-0.001l-0.259,0.964l0.706,0.706l0.964-0.259l0.001-0.001v0.001
	l1.322-1.321C29.435,15.309,29.242,16.659,28.333,17.566z"/>
<path display="none" fill="#D55352" d="M22.187,6c-5.515,0-10,4.486-10,10s4.485,10,10,10c5.514,0,10-4.486,10-10S27.701,6,22.187,6
	z"/>
<path display="none" d="M25.623,17.801c0.187,0.187,0.187,0.488,0,0.674l-0.961,0.961c-0.186,0.187-0.488,0.187-0.674,0l-1.802-1.8
	l-1.801,1.8c-0.187,0.187-0.488,0.187-0.675,0l-0.959-0.961c-0.188-0.186-0.188-0.488,0-0.674l1.8-1.801l-1.802-1.801
	c-0.186-0.187-0.186-0.489,0-0.675l0.961-0.961c0.187-0.186,0.488-0.186,0.675,0l1.801,1.802l1.802-1.802
	c0.186-0.186,0.489-0.186,0.674,0l0.961,0.961c0.187,0.187,0.187,0.488,0,0.675L23.821,16L25.623,17.801z"/>
<rect x="6.114" y="28.245" display="none" fill="none" width="32.146" height="5.568"/>
<text transform="matrix(1 0 0 1 17.1035 30.9775)" display="none" fill="#4D4D4D" font-family="'RopaSans-Regular'" font-size="4">Cancel</text>
<rect x="6.114" y="28.245" display="none" fill="none" width="32.146" height="5.568"/>
<text transform="matrix(1 0 0 1 15.6895 30.9775)" display="none" fill="#4D4D4D" font-family="'RopaSans-Regular'" font-size="4">Validate</text>
<rect x="6.114" y="28.245" display="none" fill="none" width="32.146" height="5.568"/>
<text transform="matrix(1 0 0 1 19.4854 30.9775)" display="none" fill="#4D4D4D" font-family="'RopaSans-Regular'" font-size="4">Yes</text>
<rect x="6.114" y="28.245" display="none" fill="none" width="32.146" height="5.568"/>
<text transform="matrix(1 0 0 1 20.0391 30.9775)" display="none" fill="#4D4D4D" font-family="'RopaSans-Regular'" font-size="4">No</text>
<rect x="14.26" y="6" display="none" fill="none" stroke="#9AB2D9" width="20" height="20"/>
<path display="none" fill="#9AB2D9" d="M27.918,16.594c0,0.23-0.188,0.417-0.418,0.417h-2.229v2.229c0,0.23-0.187,0.418-0.419,0.418
	h-1.188c-0.23,0-0.416-0.188-0.416-0.418v-2.229h-2.229c-0.23,0-0.417-0.188-0.417-0.417v-1.188c0-0.23,0.187-0.417,0.417-0.417
	h2.229v-2.229c0-0.231,0.186-0.418,0.416-0.418h1.188c0.232,0,0.419,0.187,0.419,0.418v2.229H27.5c0.23,0,0.418,0.187,0.418,0.417
	V16.594z"/>
<rect x="9.26" display="none" fill="none" width="5.568" height="32.146"/>
<text transform="matrix(0 -1 1 0 11.9927 24.9453)" display="none" fill="#4D4D4D" font-family="'RopaSans-Regular'" font-size="4">New Image</text>
<rect x="8.187" y="28.245" display="none" fill="none" width="32.146" height="5.568"/>
<text transform="matrix(1 0 0 1 18.7544 30.9775)" display="none" fill="#4D4D4D" font-family="'RopaSans-Regular'" font-size="4">Upload</text>
<rect x="14.26" y="6" display="none" fill="none" stroke="#D65452" width="20" height="20"/>
<path display="none" fill="#D65452" d="M27.267,13.834c0.162,0.163,0.162,0.428,0,0.591L25.691,16l1.576,1.576
	c0.162,0.163,0.163,0.427-0.001,0.591l-0.84,0.84c-0.163,0.163-0.427,0.162-0.59-0.001l-1.575-1.576l-1.577,1.576
	c-0.163,0.163-0.427,0.162-0.59,0l-0.84-0.84c-0.163-0.163-0.163-0.427,0-0.59L22.831,16l-1.576-1.576
	c-0.164-0.164-0.165-0.427-0.001-0.59l0.84-0.839c0.164-0.165,0.428-0.165,0.592-0.001l1.576,1.576l1.575-1.576
	c0.163-0.163,0.428-0.163,0.591,0L27.267,13.834z"/>
<rect x="9.26" display="none" fill="none" width="5.568" height="32.146"/>
<text transform="matrix(0 -1 1 0 11.9927 24.417)" display="none" fill="#4D4D4D" font-family="'RopaSans-Regular'" font-size="4">The Image</text>
<rect x="8.187" y="28.245" display="none" fill="none" width="32.146" height="5.568"/>
<text transform="matrix(1 0 0 1 19.1606 30.9775)" display="none" fill="#4D4D4D" font-family="'RopaSans-Regular'" font-size="4">Delete</text>
<path display="none" fill-rule="evenodd" clip-rule="evenodd" fill="#FFFFFF" d="M21.21,10.678l-0.54,1.824
	c-0.664,0.16-1.229,0.393-1.807,0.747l-1.674-0.905c-0.535,0.419-0.957,0.842-1.379,1.376l0.907,1.674
	c-0.354,0.581-0.587,1.144-0.75,1.807l-1.821,0.539c-0.08,0.677-0.08,1.271,0,1.949l1.821,0.542c0.163,0.664,0.396,1.229,0.75,1.807
	l-0.907,1.674c0.422,0.533,0.844,0.953,1.379,1.377l1.674-0.908c0.577,0.355,1.143,0.589,1.807,0.752l0.54,1.819
	c0.677,0.081,1.272,0.081,1.948,0l0.543-1.819c0.661-0.163,1.223-0.396,1.806-0.752l1.671,0.908
	c0.535-0.424,0.957-0.844,1.381-1.377l-0.913-1.674c0.361-0.578,0.596-1.143,0.752-1.807l1.824-0.542
	c0.076-0.677,0.076-1.271,0-1.949l-1.824-0.539c-0.156-0.664-0.391-1.227-0.752-1.807l0.913-1.674
	c-0.424-0.535-0.846-0.957-1.381-1.376l-1.671,0.905c-0.583-0.354-1.145-0.587-1.806-0.747l-0.543-1.824
	C22.482,10.598,21.887,10.598,21.21,10.678z M19.643,18.67c0-1.352,1.19-2.496,2.543-2.496c1.353,0,2.543,1.144,2.543,2.496
	c0,1.349-1.19,2.589-2.543,2.589C20.833,21.259,19.643,20.019,19.643,18.67z"/>
<path display="none" stroke="#000000" stroke-width="0.7844" d="M20.144,29.994c0,1.551-1.258,2.807-2.81,2.807
	c-1.553,0-2.811-1.256-2.811-2.807c0-1.554,1.258-2.814,2.811-2.814C18.885,27.18,20.144,28.44,20.144,29.994z"/>
<path display="none" stroke="#000000" stroke-width="0.7844" d="M29.851,29.994c0,1.551-1.257,2.807-2.811,2.807
	c-1.555,0-2.812-1.256-2.812-2.807c0-1.554,1.257-2.813,2.812-2.813C28.594,27.182,29.851,28.44,29.851,29.994z"/>
<line display="none" fill="none" stroke="#000000" stroke-width="0.4634" x1="9.431" y1="29.994" x2="34.943" y2="29.994"/>
<ellipse display="none" fill="#FFFFFF" cx="22.187" cy="18.815" rx="8.374" ry="10.912"/>
<path display="none" fill="#FFFFFF" stroke="#FFFFFF" stroke-width="0.5" d="M20.622,12.881v-0.842
	c0.529-0.108,1.155-0.192,1.576-0.192c1.61,0,2.211,0.613,2.211,1.66v0.301c0,0.721-0.288,1.311-1.046,2.104l-0.396,0.434
	c-0.251,0.264-0.324,0.421-0.324,0.914v0.542h-0.975v-0.385c0-0.783,0.061-0.975,0.482-1.469l0.697-0.817
	c0.443-0.53,0.539-0.794,0.539-1.348v-0.265c0-0.578-0.275-0.854-1.249-0.854C21.667,12.665,21.042,12.786,20.622,12.881z
	 M22.847,19.81c0,0.349-0.241,0.541-0.674,0.541c-0.422,0-0.662-0.191-0.662-0.541v-0.348c0-0.361,0.24-0.555,0.662-0.555
	c0.433,0,0.674,0.193,0.674,0.555V19.81z"/>
<path display="none" stroke="#000000" stroke-width="0.7844" d="M20.144,30.015c0,1.551-1.259,2.807-2.811,2.807
	c-1.553,0-2.811-1.256-2.811-2.807c0-1.554,1.258-2.814,2.811-2.814C18.885,27.2,20.144,28.461,20.144,30.015z"/>
<path display="none" stroke="#000000" stroke-width="0.7844" d="M29.851,30.015c0,1.551-1.257,2.807-2.811,2.807
	c-1.555,0-2.812-1.256-2.812-2.807c0-1.554,1.257-2.813,2.812-2.813C28.594,27.202,29.851,28.461,29.851,30.015z"/>
<line display="none" fill="none" stroke="#000000" stroke-width="0.4634" x1="9.431" y1="30.015" x2="34.943" y2="30.015"/>
<ellipse display="none" fill="#D9DADB" stroke="#000000" stroke-width="0.9006" cx="20.456" cy="17.08" rx="7.825" ry="10.315"/>
<ellipse display="none" fill="none" stroke="#000000" stroke-width="0.9006" cx="20.455" cy="20.456" rx="1.579" ry="1.646"/>
<circle display="none" stroke="#000000" stroke-width="0.46" cx="17.609" cy="13.055" r="1.648"/>
<circle display="none" stroke="#000000" stroke-width="0.46" cx="23.302" cy="13.055" r="1.647"/>
<line display="none" fill="none" stroke="#000000" stroke-width="0.4503" x1="13.399" y1="13.055" x2="27.511" y2="13.055"/>
<path display="none" d="M26.335,10.107H14.574C14.574,10.107,19.792,2.098,26.335,10.107z"/>
<ellipse display="none" fill="#ECEDED" stroke="#000000" stroke-width="0.9006" cx="22.188" cy="19.035" rx="7.825" ry="10.314"/>
<ellipse display="none" fill="none" stroke="#000000" stroke-width="0.9006" cx="22.187" cy="22.409" rx="1.58" ry="1.647"/>
<circle display="none" stroke="#000000" stroke-width="0.46" cx="19.341" cy="15.01" r="1.648"/>
<circle display="none" stroke="#000000" stroke-width="0.46" cx="25.034" cy="15.01" r="1.647"/>
<line display="none" fill="none" stroke="#000000" stroke-width="0.4503" x1="15.132" y1="15.01" x2="29.244" y2="15.01"/>
<path display="none" d="M28.068,12.061H16.307C16.307,12.061,21.524,4.052,28.068,12.061z"/>
<ellipse display="none" fill="#FFFFFF" stroke="#000000" stroke-width="0.9006" cx="23.919" cy="20.765" rx="7.825" ry="10.315"/>
<ellipse display="none" fill="none" stroke="#000000" stroke-width="0.9006" cx="23.918" cy="24.14" rx="1.579" ry="1.647"/>
<circle display="none" stroke="#000000" stroke-width="0.46" cx="21.071" cy="16.74" r="1.648"/>
<circle display="none" stroke="#000000" stroke-width="0.46" cx="26.764" cy="16.74" r="1.647"/>
<line display="none" fill="none" stroke="#000000" stroke-width="0.4503" x1="16.862" y1="16.74" x2="30.974" y2="16.74"/>
<path display="none" d="M29.798,13.791H18.037C18.037,13.791,23.255,5.782,29.798,13.791z"/>
<ellipse display="none" fill="#FFFFFF" cx="11.978" cy="13.875" rx="2.177" ry="2.839"/>
<ellipse display="none" fill="#FFFFFF" stroke="#000000" stroke-width="0.2342" cx="11.979" cy="13.875" rx="2.035" ry="2.683"/>
<path display="none" fill="none" stroke="#000000" stroke-width="0.2342" d="M12.39,14.754c0,0.235-0.184,0.426-0.411,0.426
	s-0.41-0.19-0.41-0.426c0-0.238,0.183-0.43,0.41-0.43S12.39,14.516,12.39,14.754z"/>
<circle display="none" stroke="#000000" stroke-width="0.1196" cx="11.239" cy="12.828" r="0.428"/>
<circle display="none" stroke="#000000" stroke-width="0.1196" cx="12.719" cy="12.828" r="0.428"/>
<line display="none" fill="none" stroke="#000000" stroke-width="0.1171" x1="10.144" y1="12.828" x2="13.813" y2="12.828"/>
<path display="none" d="M13.508,12.061h-3.058C10.451,12.061,11.807,9.979,13.508,12.061z"/>
<rect x="8.436" y="10.332" display="none" fill="none" stroke="#FFFFFF" stroke-width="0.2343" width="7.087" height="7.087"/>
<ellipse display="none" fill="#FFFFFF" cx="22.185" cy="13.875" rx="2.177" ry="2.839"/>
<ellipse display="none" fill="#FFFFFF" stroke="#000000" stroke-width="0.2342" cx="22.186" cy="13.875" rx="2.035" ry="2.683"/>
<ellipse display="none" fill="none" stroke="#000000" stroke-width="0.2342" cx="22.187" cy="14.753" rx="0.411" ry="0.427"/>
<circle display="none" stroke="#000000" stroke-width="0.1196" cx="21.446" cy="12.828" r="0.428"/>
<circle display="none" stroke="#000000" stroke-width="0.1196" cx="22.927" cy="12.828" r="0.427"/>
<line display="none" fill="none" stroke="#000000" stroke-width="0.1171" x1="20.351" y1="12.828" x2="24.02" y2="12.828"/>
<path display="none" d="M23.715,12.061h-3.058C20.658,12.061,22.014,9.979,23.715,12.061z"/>
<rect x="18.644" y="10.332" display="none" fill="none" stroke="#FFFFFF" stroke-width="0.2343" width="7.086" height="7.087"/>
<ellipse display="none" fill="#FFFFFF" cx="32.394" cy="13.875" rx="2.177" ry="2.839"/>
<ellipse display="none" fill="#FFFFFF" stroke="#000000" stroke-width="0.2342" cx="32.394" cy="13.875" rx="2.035" ry="2.683"/>
<ellipse display="none" fill="none" stroke="#000000" stroke-width="0.2342" cx="32.394" cy="14.753" rx="0.411" ry="0.427"/>
<circle display="none" stroke="#000000" stroke-width="0.1196" cx="31.654" cy="12.828" r="0.429"/>
<circle display="none" stroke="#000000" stroke-width="0.1196" cx="33.134" cy="12.828" r="0.429"/>
<line display="none" fill="none" stroke="#000000" stroke-width="0.1171" x1="30.559" y1="12.828" x2="34.229" y2="12.828"/>
<path display="none" d="M33.924,12.061h-3.059C30.866,12.061,32.221,9.979,33.924,12.061z"/>
<rect x="28.851" y="10.332" display="none" fill="none" stroke="#FFFFFF" stroke-width="0.2343" width="7.087" height="7.087"/>
<path display="none" fill="#FFFFFF" d="M14.156,23.752c0,1.564-0.975,2.838-2.177,2.838s-2.178-1.273-2.178-2.838
	c0-1.568,0.976-2.839,2.178-2.839S14.156,22.184,14.156,23.752z"/>
<ellipse display="none" fill="#FFFFFF" stroke="#000000" stroke-width="0.2342" cx="11.979" cy="23.752" rx="2.034" ry="2.682"/>
<path display="none" fill="none" stroke="#000000" stroke-width="0.2342" d="M12.39,24.631c0,0.234-0.184,0.425-0.411,0.425
	s-0.41-0.19-0.41-0.425c0-0.238,0.183-0.43,0.41-0.43S12.39,24.393,12.39,24.631z"/>
<circle display="none" stroke="#000000" stroke-width="0.1196" cx="11.239" cy="22.705" r="0.429"/>
<circle display="none" stroke="#000000" stroke-width="0.1196" cx="12.72" cy="22.705" r="0.428"/>
<line display="none" fill="none" stroke="#000000" stroke-width="0.1171" x1="10.144" y1="22.705" x2="13.814" y2="22.705"/>
<path display="none" d="M13.508,21.938h-3.058C10.451,21.938,11.806,19.854,13.508,21.938z"/>
<rect x="8.436" y="20.209" display="none" fill="none" stroke="#FFFFFF" stroke-width="0.2343" width="7.087" height="7.086"/>
<path display="none" fill="#FFFFFF" d="M24.362,23.752c0,1.564-0.974,2.838-2.176,2.838s-2.178-1.273-2.178-2.838
	c0-1.568,0.976-2.839,2.178-2.839S24.362,22.184,24.362,23.752z"/>
<ellipse display="none" fill="#FFFFFF" stroke="#000000" stroke-width="0.2342" cx="22.186" cy="23.752" rx="2.035" ry="2.682"/>
<ellipse display="none" fill="none" stroke="#000000" stroke-width="0.2342" cx="22.187" cy="24.629" rx="0.411" ry="0.427"/>
<circle display="none" stroke="#000000" stroke-width="0.1196" cx="21.446" cy="22.705" r="0.429"/>
<circle display="none" stroke="#000000" stroke-width="0.1196" cx="22.927" cy="22.705" r="0.427"/>
<line display="none" fill="none" stroke="#000000" stroke-width="0.1171" x1="20.351" y1="22.705" x2="24.02" y2="22.705"/>
<path display="none" d="M23.715,21.938h-3.058C20.658,21.938,22.013,19.854,23.715,21.938z"/>
<rect x="18.644" y="20.209" display="none" fill="none" stroke="#FFFFFF" stroke-width="0.2343" width="7.086" height="7.086"/>
<path display="none" fill="#FFFFFF" d="M34.571,23.752c0,1.564-0.974,2.838-2.178,2.838c-1.202,0-2.177-1.273-2.177-2.838
	c0-1.568,0.975-2.839,2.177-2.839C33.597,20.913,34.571,22.184,34.571,23.752z"/>
<ellipse display="none" fill="#FFFFFF" stroke="#000000" stroke-width="0.2342" cx="32.394" cy="23.752" rx="2.035" ry="2.682"/>
<ellipse display="none" fill="none" stroke="#000000" stroke-width="0.2342" cx="32.394" cy="24.629" rx="0.411" ry="0.427"/>
<circle display="none" stroke="#000000" stroke-width="0.1196" cx="31.654" cy="22.705" r="0.429"/>
<circle display="none" stroke="#000000" stroke-width="0.1196" cx="33.134" cy="22.705" r="0.429"/>
<line display="none" fill="none" stroke="#000000" stroke-width="0.1171" x1="30.559" y1="22.705" x2="34.229" y2="22.705"/>
<path display="none" d="M33.924,21.938h-3.059C30.866,21.938,32.221,19.854,33.924,21.938z"/>
<rect x="28.851" y="20.209" display="none" fill="none" stroke="#FFFFFF" stroke-width="0.2343" width="7.087" height="7.086"/>
<circle fill-rule="evenodd" clip-rule="evenodd" fill="#FFFFFF" stroke="#000000" stroke-width="0.288" cx="22.2" cy="19.1" r="8.505"/>
<path fill-rule="evenodd" clip-rule="evenodd" fill="#666666" d="M17.35,12.116c-4.915,3.729-3.489,8.806-3.489,8.806L22.2,19.1"/>
<path fill-rule="evenodd" clip-rule="evenodd" d="M28.54,13.435c-4.221-4.488-9.339-2.291-9.339-2.291L22.2,19.1L28.54,13.435z"/>
<polyline fill-rule="evenodd" clip-rule="evenodd" fill="#CCCCCC" points="17.35,12.116 22.2,19.1 19.211,11.138 18.154,11.619 "/>
<circle fill-rule="evenodd" clip-rule="evenodd" fill="none" stroke="#000000" stroke-width="0.288" cx="22.2" cy="19.1" r="8.505"/>
<g>
	<g>
		<path fill="#FFFFFF" stroke="#000000" stroke-width="0.901" d="M31.725,22.324H12.649c-2.005,2.973-3.232,6.874-3.232,11.164
			c0,9.299,5.716,16.834,12.771,16.834c7.053,0,12.771-7.535,12.771-16.834C34.958,29.198,33.73,25.297,31.725,22.324z"/>
	</g>
</g>
<path stroke="#000000" stroke-width="0.7844" d="M20.144,30.015c0,1.551-1.259,2.807-2.811,2.807c-1.553,0-2.811-1.256-2.811-2.807
	c0-1.554,1.258-2.814,2.811-2.814C18.885,27.2,20.144,28.461,20.144,30.015z"/>
<path stroke="#000000" stroke-width="0.7844" d="M29.851,30.015c0,1.551-1.257,2.807-2.811,2.807c-1.555,0-2.812-1.256-2.812-2.807
	c0-1.554,1.257-2.813,2.812-2.813C28.594,27.202,29.851,28.461,29.851,30.015z"/>
<line fill="none" stroke="#000000" stroke-width="0.4634" x1="9.431" y1="30.015" x2="34.943" y2="30.015"/>
</svg>
