<?xml version="1.0" encoding="utf-8"?>
<!-- Generator: Adobe Illustrator 14.0.0, SVG Export Plug-In  -->
<!DOCTYPE svg PUBLIC "-//W3C//DTD SVG 1.1//EN" "http://www.w3.org/Graphics/SVG/1.1/DTD/svg11.dtd" [
	<!ENTITY ns_flows "http://ns.adobe.com/Flows/1.0/">
]>
<svg version="1.1"
	 xmlns="http://www.w3.org/2000/svg" xmlns:xlink="http://www.w3.org/1999/xlink" xmlns:a="http://ns.adobe.com/AdobeSVGViewerExtensions/3.0/"
	 x="0px" y="0px" width="30px" height="30px" viewBox="7.187 3.813 30 30" enable-background="new 7.187 3.813 30 30"
	 xml:space="preserve">
<defs>
</defs>
<path display="none" fill="#8C428E" d="M43.312,31.313c0,3.313-2.687,6-6,6H7.875c-3.313,0-6-2.687-6-6V8.501c0-3.313,2.687-6,6-6
	h29.438c3.313,0,6,2.687,6,6V31.313z"/>
<path display="none" fill="#AFCD73" d="M22.188,5.297c-7.454,0-13.518,6.063-13.518,13.517S14.733,32.33,22.188,32.33
	c7.453,0,13.517-6.063,13.517-13.517S29.64,5.297,22.188,5.297z"/>
<path display="none" fill="#FFFFFF" d="M27.839,19.73c0,0.356-0.289,0.646-0.646,0.646H23.75v3.443c0,0.355-0.289,0.645-0.645,0.645
	h-1.836c-0.356,0-0.645-0.289-0.645-0.645v-3.443h-3.443c-0.356,0-0.645-0.289-0.645-0.646v-1.835c0-0.356,0.288-0.646,0.645-0.646
	h3.443v-3.443c0-0.356,0.288-0.646,0.645-0.646h1.836c0.356,0,0.645,0.289,0.645,0.646v3.443h3.443c0.357,0,0.646,0.289,0.646,0.646
	V19.73z"/>
<circle display="none" fill="#31AD8E" cx="22.187" cy="18.813" r="10"/>
<rect y="12.309" display="none" fill="none" width="44.375" height="41.504"/>
<text transform="matrix(1 0 0 1 19.731 25.8691)" display="none" fill="#FFFFFF" font-family="'Calibri-Bold'" font-size="20">i</text>
<path display="none" fill="#F1B13D" d="M22.187,5.296c-7.453,0-13.518,6.064-13.518,13.518c0,7.454,6.064,13.518,13.518,13.518
	s13.518-6.063,13.518-13.518C35.705,11.36,29.64,5.296,22.187,5.296z"/>
<path display="none" fill="#FFFFFF" d="M28.333,17.566c-0.873,0.875-2.158,1.087-3.232,0.64l-1.559,1.644l4.639,4.234
	c0.149,0.135,0.172,0.344,0.052,0.464l-1.237,1.239c-0.119,0.119-0.329,0.096-0.465-0.053L22.33,21.13l-3.855,4.07l-0.01-0.013
	c-0.541,0.499-1.382,0.487-1.906-0.037c-0.525-0.523-0.538-1.366-0.039-1.907l-0.002-0.001l0.025-0.026
	c0.006-0.005,0.009-0.011,0.016-0.016c0.019-0.019,0.039-0.036,0.06-0.054l4.05-3.84L19.3,17.808
	c-0.488-0.359-1.014-0.576-1.493-0.63c0,0-1.675-0.097-1.804,2.464c-0.003,0.055-0.039,0.063-0.082,0.021l-0.501-0.5
	c-0.044-0.044-0.097-0.126-0.112-0.182c-0.123-0.416-0.48-2.041,0.876-3.427l1.729-1.729c0.035-0.036,0.067-0.062,0.07-0.061
	c0.002,0.003,0.052,0.015,0.108,0.016c0.222,0.01,0.447-0.072,0.618-0.243c0.176-0.176,0.257-0.41,0.244-0.639
	c-0.003-0.057,0.017-0.132,0.053-0.167l0.941-0.942c0.037-0.036,0.1-0.029,0.144,0.015l1.483,1.481
	c0.045,0.044,0.05,0.108,0.014,0.146c0,0-0.528,0.527-0.715,0.716c-0.035,0.036-0.094,0.096-0.128,0.132l-0.097,0.096
	c-0.037,0.036-0.11,0.056-0.167,0.054c-0.229-0.014-0.464,0.066-0.64,0.243c-0.196,0.195-0.279,0.47-0.24,0.724
	c0.051,0.436,0.238,0.909,0.543,1.358l1.641,1.495l1.724-1.635c-0.448-1.073-0.235-2.357,0.638-3.23
	c0.908-0.907,2.26-1.103,3.357-0.584l-1.322,1.321l0.001,0.001h-0.001l-0.259,0.964l0.706,0.706l0.964-0.259l0.001-0.001v0.001
	l1.322-1.321C29.435,15.309,29.242,16.659,28.333,17.566z"/>
<path display="none" fill="#D45352" d="M22.187,6c-5.515,0-10,4.486-10,10s4.485,10,10,10c5.514,0,10-4.486,10-10S27.701,6,22.187,6
	z"/>
<path display="none" fill="#1A171B" d="M25.623,17.801c0.187,0.187,0.187,0.488,0,0.674l-0.961,0.961
	c-0.186,0.187-0.488,0.187-0.674,0l-1.802-1.8l-1.801,1.8c-0.187,0.187-0.488,0.187-0.675,0l-0.959-0.961
	c-0.188-0.186-0.188-0.488,0-0.674l1.8-1.801l-1.802-1.801c-0.186-0.187-0.186-0.489,0-0.675l0.961-0.961
	c0.187-0.186,0.488-0.186,0.675,0l1.801,1.802l1.802-1.802c0.186-0.186,0.489-0.186,0.674,0l0.961,0.961
	c0.187,0.187,0.187,0.488,0,0.675L23.821,16L25.623,17.801z"/>
<rect x="6.114" y="28.245" display="none" fill="none" width="32.146" height="5.568"/>
<text transform="matrix(1 0 0 1 17.1035 30.9775)" display="none" fill="#4D4D4D" font-family="'RopaSans-Regular'" font-size="4">Cancel</text>
<rect x="6.114" y="28.245" display="none" fill="none" width="32.146" height="5.568"/>
<text transform="matrix(1 0 0 1 15.6895 30.9775)" display="none" fill="#4D4D4D" font-family="'RopaSans-Regular'" font-size="4">Validate</text>
<rect x="6.114" y="28.245" display="none" fill="none" width="32.146" height="5.568"/>
<text transform="matrix(1 0 0 1 19.4854 30.9775)" display="none" fill="#4D4D4D" font-family="'RopaSans-Regular'" font-size="4">Yes</text>
<rect x="6.114" y="28.245" display="none" fill="none" width="32.146" height="5.568"/>
<text transform="matrix(1 0 0 1 20.0391 30.9775)" display="none" fill="#4D4D4D" font-family="'RopaSans-Regular'" font-size="4">No</text>
<rect x="14.26" y="6" display="none" fill="none" stroke="#99B1D8" width="20" height="20"/>
<path display="none" fill="#99B1D8" d="M27.918,16.594c0,0.23-0.188,0.417-0.418,0.417h-2.229v2.229c0,0.23-0.187,0.418-0.419,0.418
	h-1.188c-0.23,0-0.416-0.188-0.416-0.418v-2.229h-2.229c-0.23,0-0.417-0.188-0.417-0.417v-1.188c0-0.23,0.187-0.417,0.417-0.417
	h2.229v-2.229c0-0.231,0.186-0.418,0.416-0.418h1.188c0.232,0,0.419,0.187,0.419,0.418v2.229H27.5c0.23,0,0.418,0.187,0.418,0.417
	V16.594z"/>
<rect x="9.26" display="none" fill="none" width="5.568" height="32.146"/>
<text transform="matrix(0 -1 1 0 11.9927 24.9453)" display="none" fill="#4D4D4D" font-family="'RopaSans-Regular'" font-size="4">New Image</text>
<rect x="8.187" y="28.245" display="none" fill="none" width="32.146" height="5.568"/>
<text transform="matrix(1 0 0 1 18.7544 30.9775)" display="none" fill="#4D4D4D" font-family="'RopaSans-Regular'" font-size="4">Upload</text>
<rect x="14.26" y="6" display="none" fill="none" stroke="#D55352" width="20" height="20"/>
<path display="none" fill="#D55352" d="M27.267,13.834c0.162,0.163,0.162,0.428,0,0.591L25.691,16l1.576,1.576
	c0.162,0.163,0.163,0.427-0.001,0.591l-0.84,0.84c-0.163,0.163-0.427,0.162-0.59-0.001l-1.575-1.576l-1.577,1.576
	c-0.163,0.163-0.427,0.162-0.59,0l-0.84-0.84c-0.163-0.163-0.163-0.427,0-0.59L22.831,16l-1.576-1.576
	c-0.164-0.164-0.165-0.427-0.001-0.59l0.84-0.839c0.164-0.165,0.428-0.165,0.592-0.001l1.576,1.576l1.575-1.576
	c0.163-0.163,0.428-0.163,0.591,0L27.267,13.834z"/>
<rect x="9.26" display="none" fill="none" width="5.568" height="32.146"/>
<text transform="matrix(0 -1 1 0 11.9927 24.417)" display="none" fill="#4D4D4D" font-family="'RopaSans-Regular'" font-size="4">The Image</text>
<rect x="8.187" y="28.245" display="none" fill="none" width="32.146" height="5.568"/>
<text transform="matrix(1 0 0 1 19.1606 30.9775)" display="none" fill="#4D4D4D" font-family="'RopaSans-Regular'" font-size="4">Delete</text>
<path display="none" fill-rule="evenodd" clip-rule="evenodd" fill="#FFFFFF" d="M21.21,10.678l-0.54,1.824
	c-0.664,0.16-1.229,0.393-1.807,0.747l-1.674-0.905c-0.535,0.419-0.957,0.842-1.379,1.376l0.907,1.674
	c-0.354,0.581-0.587,1.144-0.75,1.807l-1.821,0.539c-0.08,0.677-0.08,1.271,0,1.949l1.821,0.542c0.163,0.664,0.396,1.229,0.75,1.807
	l-0.907,1.674c0.422,0.533,0.844,0.953,1.379,1.377l1.674-0.908c0.577,0.355,1.143,0.589,1.807,0.752l0.54,1.819
	c0.677,0.081,1.272,0.081,1.948,0l0.543-1.819c0.661-0.163,1.223-0.396,1.806-0.752l1.671,0.908
	c0.535-0.424,0.957-0.844,1.381-1.377l-0.913-1.674c0.361-0.578,0.596-1.143,0.752-1.807l1.824-0.542
	c0.076-0.677,0.076-1.271,0-1.949l-1.824-0.539c-0.156-0.664-0.391-1.227-0.752-1.807l0.913-1.674
	c-0.424-0.535-0.846-0.957-1.381-1.376l-1.671,0.905c-0.583-0.354-1.145-0.587-1.806-0.747l-0.543-1.824
	C22.482,10.598,21.887,10.598,21.21,10.678z M19.643,18.67c0-1.352,1.19-2.496,2.543-2.496c1.353,0,2.543,1.144,2.543,2.496
	c0,1.349-1.19,2.589-2.543,2.589C20.833,21.259,19.643,20.019,19.643,18.67z"/>
<path display="none" fill="#1A171B" stroke="#1A171B" stroke-width="0.7844" d="M20.144,29.994c0,1.551-1.258,2.807-2.81,2.807
	c-1.553,0-2.811-1.256-2.811-2.807c0-1.554,1.258-2.814,2.811-2.814C18.885,27.18,20.144,28.44,20.144,29.994z"/>
<path display="none" fill="#1A171B" stroke="#1A171B" stroke-width="0.7844" d="M29.851,29.994c0,1.551-1.257,2.807-2.811,2.807
	c-1.555,0-2.812-1.256-2.812-2.807c0-1.554,1.257-2.813,2.812-2.813C28.594,27.182,29.851,28.44,29.851,29.994z"/>
<line display="none" fill="none" stroke="#1A171B" stroke-width="0.4634" x1="9.431" y1="29.994" x2="34.943" y2="29.994"/>
<ellipse display="none" fill="#FFFFFF" cx="22.187" cy="18.815" rx="8.374" ry="10.912"/>
<path display="none" fill="#FFFFFF" stroke="#FFFFFF" stroke-width="0.5" d="M20.622,12.881v-0.842
	c0.529-0.108,1.155-0.192,1.576-0.192c1.61,0,2.211,0.613,2.211,1.66v0.301c0,0.721-0.288,1.311-1.046,2.104l-0.396,0.434
	c-0.251,0.264-0.324,0.421-0.324,0.914v0.542h-0.975v-0.385c0-0.783,0.061-0.975,0.482-1.469l0.697-0.817
	c0.443-0.53,0.539-0.794,0.539-1.348v-0.265c0-0.578-0.275-0.854-1.249-0.854C21.667,12.665,21.042,12.786,20.622,12.881z
	 M22.847,19.81c0,0.349-0.241,0.541-0.674,0.541c-0.422,0-0.662-0.191-0.662-0.541v-0.348c0-0.361,0.24-0.555,0.662-0.555
	c0.433,0,0.674,0.193,0.674,0.555V19.81z"/>
<path display="none" fill="#1A171B" stroke="#1A171B" stroke-width="0.7844" d="M20.144,30.015c0,1.551-1.259,2.807-2.811,2.807
	c-1.553,0-2.811-1.256-2.811-2.807c0-1.554,1.258-2.814,2.811-2.814C18.885,27.2,20.144,28.461,20.144,30.015z"/>
<path display="none" fill="#1A171B" stroke="#1A171B" stroke-width="0.7844" d="M29.851,30.015c0,1.551-1.257,2.807-2.811,2.807
	c-1.555,0-2.812-1.256-2.812-2.807c0-1.554,1.257-2.813,2.812-2.813C28.594,27.202,29.851,28.461,29.851,30.015z"/>
<line display="none" fill="none" stroke="#1A171B" stroke-width="0.4634" x1="9.431" y1="30.015" x2="34.943" y2="30.015"/>
<ellipse display="none" fill="#D8D9DA" stroke="#1A171B" stroke-width="0.9006" cx="20.456" cy="17.08" rx="7.825" ry="10.315"/>
<ellipse display="none" fill="none" stroke="#1A171B" stroke-width="0.9006" cx="20.455" cy="20.456" rx="1.579" ry="1.646"/>
<circle display="none" fill="#1A171B" stroke="#1A171B" stroke-width="0.46" cx="17.609" cy="13.055" r="1.648"/>
<circle display="none" fill="#1A171B" stroke="#1A171B" stroke-width="0.46" cx="23.302" cy="13.055" r="1.647"/>
<line display="none" fill="none" stroke="#1A171B" stroke-width="0.4503" x1="13.399" y1="13.055" x2="27.511" y2="13.055"/>
<path display="none" fill="#1A171B" d="M26.335,10.107H14.574C14.574,10.107,19.792,2.098,26.335,10.107z"/>
<ellipse display="none" fill="#ECECED" stroke="#1A171B" stroke-width="0.9006" cx="22.188" cy="19.035" rx="7.825" ry="10.314"/>
<ellipse display="none" fill="none" stroke="#1A171B" stroke-width="0.9006" cx="22.187" cy="22.409" rx="1.58" ry="1.647"/>
<circle display="none" fill="#1A171B" stroke="#1A171B" stroke-width="0.46" cx="19.341" cy="15.01" r="1.648"/>
<circle display="none" fill="#1A171B" stroke="#1A171B" stroke-width="0.46" cx="25.034" cy="15.01" r="1.647"/>
<line display="none" fill="none" stroke="#1A171B" stroke-width="0.4503" x1="15.132" y1="15.01" x2="29.244" y2="15.01"/>
<path display="none" fill="#1A171B" d="M28.068,12.061H16.307C16.307,12.061,21.524,4.052,28.068,12.061z"/>
<ellipse display="none" fill="#FFFFFF" stroke="#1A171B" stroke-width="0.9006" cx="23.919" cy="20.765" rx="7.825" ry="10.315"/>
<ellipse display="none" fill="none" stroke="#1A171B" stroke-width="0.9006" cx="23.918" cy="24.14" rx="1.579" ry="1.647"/>
<circle display="none" fill="#1A171B" stroke="#1A171B" stroke-width="0.46" cx="21.071" cy="16.74" r="1.648"/>
<circle display="none" fill="#1A171B" stroke="#1A171B" stroke-width="0.46" cx="26.764" cy="16.74" r="1.647"/>
<line display="none" fill="none" stroke="#1A171B" stroke-width="0.4503" x1="16.862" y1="16.74" x2="30.974" y2="16.74"/>
<path display="none" fill="#1A171B" d="M29.798,13.791H18.037C18.037,13.791,23.255,5.782,29.798,13.791z"/>
<ellipse display="none" fill="#FFFFFF" cx="11.978" cy="13.875" rx="2.177" ry="2.839"/>
<ellipse display="none" fill="#FFFFFF" stroke="#1A171B" stroke-width="0.2342" cx="11.979" cy="13.875" rx="2.035" ry="2.683"/>
<path display="none" fill="none" stroke="#1A171B" stroke-width="0.2342" d="M12.39,14.754c0,0.235-0.184,0.426-0.411,0.426
	s-0.41-0.19-0.41-0.426c0-0.238,0.183-0.43,0.41-0.43S12.39,14.516,12.39,14.754z"/>
<circle display="none" fill="#1A171B" stroke="#1A171B" stroke-width="0.1196" cx="11.239" cy="12.828" r="0.428"/>
<circle display="none" fill="#1A171B" stroke="#1A171B" stroke-width="0.1196" cx="12.719" cy="12.828" r="0.428"/>
<line display="none" fill="none" stroke="#1A171B" stroke-width="0.1171" x1="10.144" y1="12.828" x2="13.813" y2="12.828"/>
<path display="none" fill="#1A171B" d="M13.508,12.061h-3.058C10.451,12.061,11.807,9.979,13.508,12.061z"/>
<rect x="8.436" y="10.332" display="none" fill="none" stroke="#FFFFFF" stroke-width="0.2343" width="7.087" height="7.087"/>
<ellipse display="none" fill="#FFFFFF" cx="22.185" cy="13.875" rx="2.177" ry="2.839"/>
<ellipse display="none" fill="#FFFFFF" stroke="#1A171B" stroke-width="0.2342" cx="22.186" cy="13.875" rx="2.035" ry="2.683"/>
<ellipse display="none" fill="none" stroke="#1A171B" stroke-width="0.2342" cx="22.187" cy="14.753" rx="0.411" ry="0.427"/>
<circle display="none" fill="#1A171B" stroke="#1A171B" stroke-width="0.1196" cx="21.446" cy="12.828" r="0.428"/>
<circle display="none" fill="#1A171B" stroke="#1A171B" stroke-width="0.1196" cx="22.927" cy="12.828" r="0.427"/>
<line display="none" fill="none" stroke="#1A171B" stroke-width="0.1171" x1="20.351" y1="12.828" x2="24.02" y2="12.828"/>
<path display="none" fill="#1A171B" d="M23.715,12.061h-3.058C20.658,12.061,22.014,9.979,23.715,12.061z"/>
<rect x="18.644" y="10.332" display="none" fill="none" stroke="#FFFFFF" stroke-width="0.901" width="7.086" height="7.087"/>
<ellipse display="none" fill="#FFFFFF" cx="32.394" cy="13.875" rx="2.177" ry="2.839"/>
<ellipse display="none" fill="#FFFFFF" stroke="#1A171B" stroke-width="0.2342" cx="32.394" cy="13.875" rx="2.035" ry="2.683"/>
<ellipse display="none" fill="none" stroke="#1A171B" stroke-width="0.2342" cx="32.394" cy="14.753" rx="0.411" ry="0.427"/>
<circle display="none" fill="#1A171B" stroke="#1A171B" stroke-width="0.1196" cx="31.654" cy="12.828" r="0.429"/>
<circle display="none" fill="#1A171B" stroke="#1A171B" stroke-width="0.1196" cx="33.134" cy="12.828" r="0.429"/>
<line display="none" fill="none" stroke="#1A171B" stroke-width="0.1171" x1="30.559" y1="12.828" x2="34.229" y2="12.828"/>
<path display="none" fill="#1A171B" d="M33.924,12.061h-3.059C30.866,12.061,32.221,9.979,33.924,12.061z"/>
<rect x="28.851" y="10.332" display="none" fill="none" stroke="#FFFFFF" stroke-width="0.2343" width="7.087" height="7.087"/>
<path display="none" fill="#FFFFFF" d="M14.156,23.752c0,1.564-0.975,2.838-2.177,2.838s-2.178-1.273-2.178-2.838
	c0-1.568,0.976-2.839,2.178-2.839S14.156,22.184,14.156,23.752z"/>
<ellipse display="none" fill="#FFFFFF" stroke="#1A171B" stroke-width="0.2342" cx="11.979" cy="23.752" rx="2.034" ry="2.682"/>
<path display="none" fill="none" stroke="#1A171B" stroke-width="0.2342" d="M12.39,24.631c0,0.234-0.184,0.425-0.411,0.425
	s-0.41-0.19-0.41-0.425c0-0.238,0.183-0.43,0.41-0.43S12.39,24.393,12.39,24.631z"/>
<circle display="none" fill="#1A171B" stroke="#1A171B" stroke-width="0.1196" cx="11.239" cy="22.705" r="0.429"/>
<circle display="none" fill="#1A171B" stroke="#1A171B" stroke-width="0.1196" cx="12.72" cy="22.705" r="0.428"/>
<line display="none" fill="none" stroke="#1A171B" stroke-width="0.1171" x1="10.144" y1="22.705" x2="13.814" y2="22.705"/>
<path display="none" fill="#1A171B" d="M13.508,21.938h-3.058C10.451,21.938,11.806,19.854,13.508,21.938z"/>
<rect x="8.436" y="20.209" display="none" fill="none" stroke="#FFFFFF" stroke-width="0.901" width="7.087" height="7.086"/>
<path display="none" fill="#FFFFFF" d="M24.362,23.752c0,1.564-0.974,2.838-2.176,2.838s-2.178-1.273-2.178-2.838
	c0-1.568,0.976-2.839,2.178-2.839S24.362,22.184,24.362,23.752z"/>
<ellipse display="none" fill="#FFFFFF" stroke="#1A171B" stroke-width="0.2342" cx="22.186" cy="23.752" rx="2.035" ry="2.682"/>
<ellipse display="none" fill="none" stroke="#1A171B" stroke-width="0.2342" cx="22.187" cy="24.629" rx="0.411" ry="0.427"/>
<circle display="none" fill="#1A171B" stroke="#1A171B" stroke-width="0.1196" cx="21.446" cy="22.705" r="0.429"/>
<circle display="none" fill="#1A171B" stroke="#1A171B" stroke-width="0.1196" cx="22.927" cy="22.705" r="0.427"/>
<line display="none" fill="none" stroke="#1A171B" stroke-width="0.1171" x1="20.351" y1="22.705" x2="24.02" y2="22.705"/>
<path display="none" fill="#1A171B" d="M23.715,21.938h-3.058C20.658,21.938,22.013,19.854,23.715,21.938z"/>
<rect x="18.644" y="20.209" display="none" fill="none" stroke="#FFFFFF" stroke-width="0.2343" width="7.086" height="7.086"/>
<path display="none" fill="#FFFFFF" d="M34.571,23.752c0,1.564-0.974,2.838-2.178,2.838c-1.202,0-2.177-1.273-2.177-2.838
	c0-1.568,0.975-2.839,2.177-2.839C33.597,20.913,34.571,22.184,34.571,23.752z"/>
<ellipse display="none" fill="#FFFFFF" stroke="#1A171B" stroke-width="0.2342" cx="32.394" cy="23.752" rx="2.035" ry="2.682"/>
<ellipse display="none" fill="none" stroke="#1A171B" stroke-width="0.2342" cx="32.394" cy="24.629" rx="0.411" ry="0.427"/>
<circle display="none" fill="#1A171B" stroke="#1A171B" stroke-width="0.1196" cx="31.654" cy="22.705" r="0.429"/>
<circle display="none" fill="#1A171B" stroke="#1A171B" stroke-width="0.1196" cx="33.134" cy="22.705" r="0.429"/>
<line display="none" fill="none" stroke="#1A171B" stroke-width="0.1171" x1="30.559" y1="22.705" x2="34.229" y2="22.705"/>
<path display="none" fill="#1A171B" d="M33.924,21.938h-3.059C30.866,21.938,32.221,19.854,33.924,21.938z"/>
<rect x="28.851" y="20.209" display="none" fill="none" stroke="#FFFFFF" stroke-width="0.901" width="7.087" height="7.086"/>
<circle display="none" fill-rule="evenodd" clip-rule="evenodd" fill="#FFFFFF" stroke="#1A171B" stroke-width="0.288" cx="22.2" cy="19.1" r="8.505"/>
<path display="none" fill-rule="evenodd" clip-rule="evenodd" fill="#666666" d="M17.35,12.116
	c-4.915,3.729-3.489,8.806-3.489,8.806L22.2,19.1"/>
<path display="none" fill-rule="evenodd" clip-rule="evenodd" fill="#1A171B" d="M28.54,13.435
	c-4.221-4.488-9.339-2.291-9.339-2.291L22.2,19.1L28.54,13.435z"/>
<polyline display="none" fill-rule="evenodd" clip-rule="evenodd" fill="#CCCCCC" points="17.35,12.116 22.2,19.1 19.211,11.138 
	18.154,11.619 "/>
<circle display="none" fill-rule="evenodd" clip-rule="evenodd" fill="none" stroke="#1A171B" stroke-width="0.288" cx="22.2" cy="19.1" r="8.505"/>
<path display="none" fill="#1A171B" stroke="#1A171B" stroke-width="0.7844" d="M20.144,30.015c0,1.551-1.259,2.807-2.811,2.807
	c-1.553,0-2.811-1.256-2.811-2.807c0-1.554,1.258-2.814,2.811-2.814C18.885,27.2,20.144,28.461,20.144,30.015z"/>
<path display="none" fill="#1A171B" stroke="#1A171B" stroke-width="0.7844" d="M29.851,30.015c0,1.551-1.257,2.807-2.811,2.807
	c-1.555,0-2.812-1.256-2.812-2.807c0-1.554,1.257-2.813,2.812-2.813C28.594,27.202,29.851,28.461,29.851,30.015z"/>
<line display="none" fill="none" stroke="#1A171B" stroke-width="0.4634" x1="9.431" y1="30.015" x2="34.943" y2="30.015"/>
<ellipse display="none" fill="#CCCCCC" cx="22.187" cy="16.923" rx="7.825" ry="10.314"/>
<rect x="6.114" y="28.245" display="none" fill="none" width="32.146" height="5.568"/>
<text transform="matrix(1 0 0 1 13.8594 30.9775)" display="none" fill="#999999" font-family="'RopaSans-Regular'" font-size="4">No picture</text>
<path display="none" fill="#FFFFFF" stroke="#FFFFFF" stroke-width="0.588" d="M20.409,12.353v-0.99
	c0.621-0.128,1.357-0.226,1.854-0.226c1.889,0,2.598,0.722,2.598,1.952v0.355c0,0.848-0.338,1.541-1.232,2.474l-0.463,0.51
	c-0.296,0.31-0.386,0.496-0.386,1.075v0.637h-1.144v-0.452c0-0.921,0.069-1.146,0.565-1.727l0.82-0.961
	c0.523-0.624,0.635-0.934,0.635-1.584v-0.313c0-0.679-0.324-1.004-1.468-1.004C21.636,12.098,20.898,12.24,20.409,12.353z
	 M23.021,20.503c0,0.41-0.282,0.633-0.792,0.633c-0.496,0-0.779-0.223-0.779-0.633v-0.414c0-0.42,0.283-0.648,0.779-0.648
	c0.51,0,0.792,0.229,0.792,0.648V20.503z"/>
<ellipse display="none" fill="#FFFFFF" stroke="#666666" stroke-width="0.9006" cx="22.187" cy="16.923" rx="7.825" ry="10.314"/>
<path display="none" fill="none" stroke="#666666" stroke-width="0.9006" d="M23.766,20.298c0,0.908-0.709,1.646-1.58,1.646
	c-0.873,0-1.578-0.738-1.578-1.646c0-0.912,0.705-1.648,1.578-1.648C23.057,18.649,23.766,19.386,23.766,20.298z"/>
<path display="none" fill="#666666" d="M28.067,9.949H16.305C16.305,9.949,21.524,1.94,28.067,9.949z"/>
<path display="none" fill="#333333" d="M20.703,13.611c0.074,0.074,0.074,0.194,0,0.268l-0.381,0.381
	c-0.074,0.073-0.193,0.073-0.267,0l-0.714-0.714l-0.713,0.714c-0.074,0.073-0.193,0.073-0.268,0l-0.381-0.381
	c-0.074-0.074-0.074-0.194,0-0.268l0.714-0.713l-0.714-0.714c-0.074-0.074-0.074-0.194,0-0.267l0.38-0.381
	c0.075-0.074,0.194-0.074,0.269,0l0.713,0.715l0.714-0.714c0.074-0.074,0.193-0.074,0.267,0l0.381,0.381
	c0.074,0.073,0.074,0.193,0,0.267l-0.714,0.714L20.703,13.611z"/>
<path display="none" fill="#333333" d="M26.394,13.611c0.074,0.074,0.074,0.194,0,0.268l-0.381,0.381
	c-0.074,0.073-0.193,0.073-0.268,0l-0.714-0.714l-0.714,0.714c-0.074,0.073-0.193,0.073-0.268,0l-0.381-0.381
	c-0.073-0.074-0.073-0.194,0-0.268l0.715-0.713l-0.715-0.714c-0.073-0.074-0.073-0.194,0-0.267l0.381-0.381
	c0.074-0.074,0.193-0.074,0.268,0l0.714,0.715l0.714-0.714c0.074-0.074,0.193-0.074,0.268,0l0.381,0.381
	c0.074,0.073,0.074,0.193,0,0.267l-0.714,0.714L26.394,13.611z"/>
<rect x="6.114" y="28.245" display="none" fill="none" width="32.146" height="5.568"/>
<text transform="matrix(1 0 0 1 14.3936 30.9775)" display="none" fill="#4D4D4D" font-family="'RopaSans-Regular'" font-size="4">No artists</text>
<ellipse display="none" fill="#FFFFFF" stroke="#666666" stroke-width="0.6123" cx="22.187" cy="16.888" rx="5.32" ry="7.012"/>
<ellipse display="none" fill="none" stroke="#666666" stroke-width="0.6123" cx="22.187" cy="19.182" rx="1.073" ry="1.12"/>
<path display="none" fill="#666666" d="M26.184,12.147h-7.996C18.188,12.147,21.736,6.702,26.184,12.147z"/>
<path display="none" fill="#333333" d="M21.178,14.637c0.05,0.05,0.05,0.131,0,0.182l-0.259,0.259c-0.05,0.05-0.131,0.05-0.182,0
	l-0.485-0.486l-0.485,0.486c-0.05,0.05-0.131,0.05-0.182,0l-0.259-0.259c-0.05-0.051-0.05-0.132,0-0.182l0.485-0.485l-0.485-0.485
	c-0.05-0.05-0.05-0.132,0-0.182l0.258-0.259c0.051-0.05,0.132-0.05,0.183,0l0.485,0.486l0.485-0.486c0.05-0.05,0.131-0.05,0.182,0
	l0.259,0.259c0.05,0.05,0.05,0.132,0,0.182l-0.485,0.485L21.178,14.637z"/>
<path display="none" fill="#333333" d="M25.047,14.637c0.05,0.05,0.05,0.131,0,0.182l-0.259,0.259c-0.051,0.05-0.132,0.05-0.183,0
	l-0.485-0.486l-0.485,0.486c-0.05,0.05-0.131,0.05-0.182,0l-0.259-0.259c-0.05-0.051-0.05-0.132,0-0.182l0.486-0.485l-0.486-0.485
	c-0.05-0.05-0.05-0.132,0-0.182l0.259-0.259c0.051-0.05,0.132-0.05,0.182,0l0.485,0.486l0.485-0.486c0.051-0.05,0.132-0.05,0.183,0
	l0.259,0.259c0.05,0.05,0.05,0.132,0,0.182l-0.485,0.485L25.047,14.637z"/>
<rect x="6.114" y="28.245" display="none" fill="none" width="32.146" height="5.568"/>
<text transform="matrix(1 0 0 1 12.3936 30.9775)" display="none" fill="#4D4D4D" font-family="'RopaSans-Regular'" font-size="4">No artworks</text>
<rect x="12.265" y="6.968" display="none" fill="none" stroke="#666666" stroke-width="0.6123" width="19.844" height="19.843"/>
<path display="none" fill="#D65452" d="M24.335,16.083l9.221-3.939l2.059,5.908l-9.938,2.241l6.625,7.519l-5.102,3.67l-5.103-8.594
	l-5.103,8.682l-5.015-3.758l6.626-7.609l-9.848-2.15l2.059-5.908l9.13,3.849l-0.893-9.935h6.173L24.335,16.083z"/>
<path display="none" fill="#D65452" d="M22.187,5.297c-7.454,0-13.517,6.063-13.517,13.517S14.732,32.33,22.187,32.33
	c7.454,0,13.518-6.063,13.518-13.517S29.64,5.297,22.187,5.297z"/>
<path display="none" fill="#FFFFFF" d="M26.832,21.247c0.252,0.253,0.252,0.661,0,0.913l-1.299,1.298
	c-0.252,0.252-0.66,0.252-0.912,0l-2.435-2.434l-2.434,2.434c-0.252,0.252-0.66,0.252-0.912,0l-1.298-1.298
	c-0.253-0.252-0.253-0.66,0-0.913l2.434-2.434l-2.435-2.435c-0.252-0.252-0.252-0.661,0-0.913l1.298-1.299
	c0.253-0.251,0.661-0.251,0.913,0l2.434,2.437l2.435-2.436c0.252-0.252,0.662-0.252,0.912,0l1.299,1.298
	c0.252,0.252,0.252,0.661,0,0.913l-2.436,2.435L26.832,21.247z"/>
<path display="none" fill="#AECC72" d="M22.187,5.297c-7.453,0-13.518,6.063-13.518,13.517S14.734,32.33,22.187,32.33
	s13.518-6.063,13.518-13.517S29.64,5.297,22.187,5.297z"/>
<path display="none" fill="#FFFFFF" d="M28.257,16.379l-2.434,2.435l-2.211,2.211l-2.436,2.434c-0.252,0.252-0.66,0.252-0.911,0
	l-1.299-1.298l-0.417-0.495l-2.436-2.436c-0.252-0.251-0.252-0.66,0-0.912l1.299-1.298c0.252-0.251,0.66-0.251,0.912,0l2.436,2.435
	l5.286-5.286c0.253-0.252,0.661-0.252,0.912,0l1.298,1.298C28.509,15.718,28.509,16.127,28.257,16.379z"/>
<path display="none" fill="#1A171B" stroke="#1A171B" stroke-width="0.7844" d="M20.144,30.015c0,1.551-1.259,2.807-2.811,2.807
	c-1.553,0-2.811-1.256-2.811-2.807c0-1.554,1.258-2.814,2.811-2.814C18.885,27.2,20.144,28.461,20.144,30.015z"/>
<path display="none" fill="#1A171B" stroke="#1A171B" stroke-width="0.7844" d="M29.851,30.015c0,1.551-1.257,2.807-2.811,2.807
	c-1.555,0-2.812-1.256-2.812-2.807c0-1.554,1.257-2.813,2.812-2.813C28.594,27.202,29.851,28.461,29.851,30.015z"/>
<line display="none" fill="none" stroke="#1A171B" stroke-width="0.4634" x1="9.431" y1="30.015" x2="34.943" y2="30.015"/>
<path display="none" fill="#FFFFFF" d="M20.016,15.171c0.168-1.307,0.888-2.015,1.955-2.015c0.527,0,1.079,0.372,1.403,0.648
	l0.06-0.492h0.96l-0.479,3.802c-0.013,0.072-0.024,0.204-0.024,0.24c0,0.348,0.168,0.576,0.612,0.576
	c0.839,0,1.522-0.887,1.522-2.135v-0.6c0-2.363-1.319-3.61-3.958-3.61c-2.338,0-3.718,1.415-3.718,3.97v1.199
	c0,2.327,1.247,3.562,3.718,3.562h1.619v0.912h-1.619c-3.238,0-4.737-1.572-4.737-4.474v-1.199c0-2.866,1.463-4.881,4.737-4.881
	c3.395,0,4.978,1.547,4.978,4.521v0.6c0,1.763-0.96,3.035-2.555,3.035c-0.899,0-1.415-0.42-1.511-1.127
	c-0.564,0.684-1.248,1.127-1.848,1.127c-0.887,0-1.367-0.552-1.367-1.535c0-0.096,0.024-0.372,0.036-0.468L20.016,15.171z
	 M22.93,16.827l0.264-2.171c-0.287-0.348-0.755-0.588-1.127-0.588c-0.539,0-0.947,0.372-1.055,1.248l-0.181,1.379
	c-0.024,0.144-0.036,0.276-0.036,0.384c0,0.6,0.252,0.84,0.648,0.84C21.911,17.918,22.463,17.534,22.93,16.827z"/>
<ellipse display="none" fill="#D8D9DA" stroke="#1A171B" stroke-width="0.9006" cx="20.456" cy="17.08" rx="7.825" ry="10.315"/>
<ellipse display="none" fill="none" stroke="#1A171B" stroke-width="0.9006" cx="20.455" cy="20.456" rx="1.579" ry="1.646"/>
<circle display="none" fill="#1A171B" stroke="#1A171B" stroke-width="0.46" cx="17.609" cy="13.055" r="1.648"/>
<circle display="none" fill="#1A171B" stroke="#1A171B" stroke-width="0.46" cx="23.302" cy="13.055" r="1.647"/>
<line display="none" fill="none" stroke="#1A171B" stroke-width="0.4503" x1="13.399" y1="13.055" x2="27.511" y2="13.055"/>
<path display="none" fill="#1A171B" d="M26.335,10.107H14.574C14.574,10.107,19.792,2.098,26.335,10.107z"/>
<ellipse display="none" fill="#ECECED" stroke="#1A171B" stroke-width="0.9006" cx="22.188" cy="19.035" rx="7.825" ry="10.314"/>
<ellipse display="none" fill="none" stroke="#1A171B" stroke-width="0.9006" cx="22.187" cy="22.409" rx="1.58" ry="1.647"/>
<circle display="none" fill="#1A171B" stroke="#1A171B" stroke-width="0.46" cx="19.341" cy="15.01" r="1.648"/>
<circle display="none" fill="#1A171B" stroke="#1A171B" stroke-width="0.46" cx="25.034" cy="15.01" r="1.647"/>
<line display="none" fill="none" stroke="#1A171B" stroke-width="0.4503" x1="15.132" y1="15.01" x2="29.244" y2="15.01"/>
<path display="none" fill="#1A171B" d="M28.068,12.061H16.307C16.307,12.061,21.524,4.052,28.068,12.061z"/>
<ellipse display="none" fill="#FFFFFF" stroke="#1A171B" stroke-width="0.9006" cx="23.919" cy="20.765" rx="7.825" ry="10.315"/>
<ellipse display="none" fill="none" stroke="#1A171B" stroke-width="0.9006" cx="23.918" cy="24.14" rx="1.579" ry="1.647"/>
<circle display="none" fill="#1A171B" stroke="#1A171B" stroke-width="0.46" cx="21.071" cy="16.74" r="1.648"/>
<circle display="none" fill="#1A171B" stroke="#1A171B" stroke-width="0.46" cx="26.764" cy="16.74" r="1.647"/>
<line display="none" fill="none" stroke="#1A171B" stroke-width="0.4503" x1="16.862" y1="16.74" x2="30.974" y2="16.74"/>
<path display="none" fill="#1A171B" d="M29.798,13.791H18.037C18.037,13.791,23.255,5.782,29.798,13.791z"/>
<ellipse fill="#FFFFFF" cx="20.753" cy="21.465" rx="2.177" ry="2.839"/>
<ellipse fill="#FFFFFF" stroke="#1A1A1A" stroke-width="0.2342" cx="20.754" cy="21.465" rx="2.035" ry="2.683"/>
<path fill="none" stroke="#1A1A1A" stroke-width="0.2342" d="M21.165,22.344c0,0.235-0.184,0.426-0.411,0.426
	c-0.227,0-0.41-0.19-0.41-0.426c0-0.238,0.184-0.43,0.41-0.43C20.981,21.914,21.165,22.105,21.165,22.344z"/>
<circle fill="#1A1A1A" stroke="#1A1A1A" stroke-width="0.1196" cx="20.014" cy="20.418" r="0.428"/>
<circle fill="#1A1A1A" stroke="#1A1A1A" stroke-width="0.1196" cx="21.494" cy="20.418" r="0.428"/>
<line fill="none" stroke="#1A1A1A" stroke-width="0.1171" x1="18.918" y1="20.418" x2="22.588" y2="20.418"/>
<path fill="#1A1A1A" d="M22.283,19.65h-3.058C19.225,19.65,20.582,17.568,22.283,19.65z"/>
<rect x="17.21" y="17.922" fill="none" stroke="#000000" stroke-width="0.2343" width="7.088" height="7.087"/>
<path fill="#FFFFFF" d="M31.812,25.51c0,1.564-0.975,2.838-2.176,2.838c-1.203,0-2.178-1.273-2.178-2.838
	c0-1.568,0.975-2.839,2.178-2.839C30.837,22.671,31.812,23.941,31.812,25.51z"/>
<ellipse fill="#FFFFFF" stroke="#1A1A1A" stroke-width="0.2342" cx="29.635" cy="25.51" rx="2.034" ry="2.682"/>
<path fill="none" stroke="#1A1A1A" stroke-width="0.2342" d="M30.046,26.389c0,0.234-0.184,0.426-0.41,0.426
	c-0.229,0-0.41-0.191-0.41-0.426c0-0.238,0.182-0.43,0.41-0.43C29.863,25.959,30.046,26.15,30.046,26.389z"/>
<circle fill="#1A1A1A" stroke="#1A1A1A" stroke-width="0.1196" cx="28.895" cy="24.463" r="0.429"/>
<circle fill="#1A1A1A" stroke="#1A1A1A" stroke-width="0.1196" cx="30.376" cy="24.463" r="0.428"/>
<line fill="none" stroke="#1A1A1A" stroke-width="0.1171" x1="27.8" y1="24.463" x2="31.47" y2="24.463"/>
<path fill="#1A1A1A" d="M31.166,23.695h-3.059C28.107,23.695,29.462,21.612,31.166,23.695z"/>
<rect x="26.093" y="21.967" fill="none" stroke="#000000" stroke-width="0.901" width="7.086" height="7.086"/>
<rect x="11.195" y="23.695" fill="#FFFFFF" stroke="#000000" stroke-width="0.901" width="7.087" height="7.086"/>
<path fill="#FFFFFF" d="M16.915,27.238c0,1.564-0.975,2.838-2.177,2.838s-2.178-1.273-2.178-2.838c0-1.568,0.976-2.839,2.178-2.839
	S16.915,25.67,16.915,27.238z"/>
<ellipse fill="#FFFFFF" stroke="#1A1A1A" stroke-width="0.2342" cx="14.738" cy="27.238" rx="2.034" ry="2.682"/>
<path fill="none" stroke="#1A1A1A" stroke-width="0.2342" d="M15.149,28.117c0,0.234-0.184,0.426-0.411,0.426
	s-0.41-0.191-0.41-0.426c0-0.238,0.183-0.43,0.41-0.43S15.149,27.879,15.149,28.117z"/>
<circle fill="#1A1A1A" stroke="#1A1A1A" stroke-width="0.1196" cx="13.998" cy="26.191" r="0.429"/>
<circle fill="#1A1A1A" stroke="#1A1A1A" stroke-width="0.1196" cx="15.479" cy="26.191" r="0.428"/>
<line fill="none" stroke="#1A1A1A" stroke-width="0.1171" x1="12.903" y1="26.191" x2="16.573" y2="26.191"/>
<path fill="#1A1A1A" d="M16.267,25.424h-3.058C13.209,25.424,14.565,23.341,16.267,25.424z"/>
<circle fill="none" stroke="#000000" stroke-width="0.466" cx="14.524" cy="16.915" r="0.844"/>
<path d="M12.751,23.026v-5.25h2.443c0.564,0,0.938,0.086,1.123,0.257c0.185,0.172,0.277,0.521,0.277,1.052
	c0,0.405-0.046,0.691-0.136,0.854c-0.091,0.164-0.25,0.276-0.479,0.337c0.277,0.071,0.471,0.195,0.58,0.377
	c0.109,0.179,0.164,0.481,0.164,0.907c0,0.578-0.113,0.967-0.342,1.167c-0.228,0.199-0.685,0.3-1.371,0.3H12.751z M13.322,20.042
	h1.893c0.308,0,0.515-0.055,0.62-0.165c0.106-0.109,0.159-0.354,0.159-0.729c0-0.359-0.057-0.586-0.169-0.677
	c-0.113-0.092-0.401-0.138-0.864-0.138h-1.64V20.042z M13.322,22.476h1.914c0.348,0,0.582-0.054,0.702-0.159
	c0.12-0.106,0.181-0.386,0.181-0.835c0-0.378-0.067-0.623-0.201-0.736c-0.135-0.109-0.482-0.166-1.044-0.166h-1.551V22.476z"/>
<path d="M30.21,17.776h-1.142v-4.646l-4.344-5.854h1.368l3.54,4.894l3.539-4.894h1.375l-4.337,5.831V17.776z"/>
<path d="M19.272,28.813c0-0.447,0.094-0.759,0.278-0.935c0.185-0.177,0.512-0.264,0.982-0.264h0.444
	c0.431,0,0.749,0.072,0.953,0.219s0.307,0.375,0.307,0.685v0.149h-0.399v-0.043c0-0.242-0.062-0.409-0.184-0.504
	s-0.355-0.143-0.701-0.143h-0.308c-0.239,0-0.412,0.014-0.517,0.04s-0.194,0.071-0.268,0.134c-0.067,0.059-0.115,0.136-0.143,0.232
	c-0.027,0.098-0.041,0.271-0.041,0.525v0.996c0,0.25,0.014,0.424,0.041,0.521s0.075,0.175,0.143,0.232
	c0.073,0.063,0.161,0.107,0.263,0.134c0.102,0.027,0.275,0.04,0.521,0.04h0.308c0.223,0,0.381-0.012,0.474-0.035
	c0.092-0.023,0.172-0.063,0.239-0.12c0.063-0.053,0.106-0.126,0.133-0.219c0.026-0.092,0.039-0.25,0.039-0.475V29.77h-0.971v-0.355
	h1.37V30c0,0.447-0.093,0.76-0.277,0.935c-0.186,0.176-0.513,0.265-0.982,0.265h-0.444c-0.471,0-0.798-0.089-0.982-0.265
	c-0.185-0.175-0.278-0.487-0.278-0.935V28.813z"/>
<circle fill="none" stroke="#000000" stroke-width="0.3107" cx="20.742" cy="31.788" r="0.563"/>
</svg>
