<?xml version="1.0" encoding="utf-8"?>
<!-- Generator: Adobe Illustrator 14.0.0, SVG Export Plug-In  -->
<!DOCTYPE svg PUBLIC "-//W3C//DTD SVG 1.1//EN" "http://www.w3.org/Graphics/SVG/1.1/DTD/svg11.dtd" [
	<!ENTITY ns_flows "http://ns.adobe.com/Flows/1.0/">
]>
<svg version="1.1"
	 xmlns="http://www.w3.org/2000/svg" xmlns:xlink="http://www.w3.org/1999/xlink" xmlns:a="http://ns.adobe.com/AdobeSVGViewerExtensions/3.0/"
	 x="0px" y="0px" width="30px" height="30px" viewBox="7.187 -1.483 30 30" enable-background="new 7.187 -1.483 30 30"
	 xml:space="preserve">
<defs>
</defs>
<path fill="#AFCD73" d="M22.188,0C14.733,0,8.67,6.064,8.67,13.517s6.063,13.517,13.518,13.517c7.453,0,13.517-6.063,13.517-13.517
	S29.64,0,22.188,0z"/>
<path fill="#FFFFFF" d="M27.839,14.434c0,0.356-0.289,0.646-0.646,0.646H23.75v3.443c0,0.355-0.289,0.645-0.645,0.645h-1.836
	c-0.356,0-0.645-0.289-0.645-0.645V15.08h-3.443c-0.356,0-0.645-0.289-0.645-0.646v-1.835c0-0.356,0.288-0.646,0.645-0.646h3.443
	V8.51c0-0.356,0.288-0.646,0.645-0.646h1.836c0.356,0,0.645,0.289,0.645,0.646v3.443h3.443c0.357,0,0.646,0.289,0.646,0.646V14.434z
	"/>
<circle display="none" fill="#33AF8F" cx="22.187" cy="13.517" r="10"/>
<rect y="7.013" display="none" fill="none" width="44.375" height="41.504"/>
<text transform="matrix(1 0 0 1 19.731 20.5728)" display="none" fill="#FFFFFF" font-family="'Calibri-Bold'" font-size="20">i</text>
<path fill="#C25A5B" d="M22.187,0C14.732,0,8.67,6.063,8.67,13.517c0,7.454,6.063,13.518,13.517,13.518
	c7.454,0,13.518-6.064,13.518-13.518C35.705,6.063,29.64,0,22.187,0z"/>
<path fill="#FFFFFF" d="M26.832,15.951c0.252,0.253,0.252,0.661,0,0.912l-1.299,1.299c-0.252,0.252-0.66,0.252-0.912,0l-2.435-2.434
	l-2.434,2.434c-0.252,0.252-0.66,0.252-0.912,0l-1.298-1.299c-0.253-0.251-0.253-0.66,0-0.912l2.434-2.434l-2.435-2.435
	c-0.252-0.252-0.252-0.661,0-0.913l1.298-1.299c0.253-0.251,0.661-0.251,0.913,0l2.434,2.436l2.435-2.436
	c0.252-0.251,0.662-0.251,0.912,0l1.299,1.298c0.252,0.252,0.252,0.661,0,0.913l-2.436,2.435L26.832,15.951z"/>
</svg>
