<?xml version="1.0" encoding="utf-8"?>
<!-- Generator: Adobe Illustrator 14.0.0, SVG Export Plug-In  -->
<!DOCTYPE svg PUBLIC "-//W3C//DTD SVG 1.1//EN" "http://www.w3.org/Graphics/SVG/1.1/DTD/svg11.dtd" [
	<!ENTITY ns_flows "http://ns.adobe.com/Flows/1.0/">
]>
<svg version="1.1"
	 xmlns="http://www.w3.org/2000/svg" xmlns:xlink="http://www.w3.org/1999/xlink" xmlns:a="http://ns.adobe.com/AdobeSVGViewerExtensions/3.0/"
	 x="0px" y="0px" width="30px" height="30px" viewBox="7.187 -1.482 30 30" enable-background="new 7.187 -1.482 30 30"
	 xml:space="preserve">
<defs>
</defs>
<path display="none" fill="#AFCD73" d="M22.188,0.001c-7.454,0-13.518,6.063-13.518,13.517s6.063,13.517,13.518,13.517
	c7.453,0,13.517-6.063,13.517-13.517S29.64,0.001,22.188,0.001z"/>
<path display="none" fill="#FFFFFF" d="M27.839,14.435c0,0.356-0.289,0.646-0.646,0.646H23.75v3.443
	c0,0.355-0.289,0.645-0.645,0.645h-1.836c-0.356,0-0.645-0.289-0.645-0.645V15.08h-3.443c-0.356,0-0.645-0.289-0.645-0.646V12.6
	c0-0.356,0.288-0.646,0.645-0.646h3.443V8.511c0-0.356,0.288-0.646,0.645-0.646h1.836c0.356,0,0.645,0.289,0.645,0.646v3.443h3.443
	c0.357,0,0.646,0.289,0.646,0.646V14.435z"/>
<circle display="none" fill="#33AF8F" cx="22.187" cy="13.518" r="10"/>
<rect y="7.013" display="none" fill="none" width="44.375" height="41.504"/>
<text transform="matrix(1 0 0 1 19.731 20.5732)" display="none" fill="#FFFFFF" font-family="'Calibri-Bold'" font-size="20">i</text>
<path display="none" fill="#F1B23E" d="M22.187,0C14.734,0,8.669,6.064,8.669,13.518c0,7.454,6.064,13.518,13.518,13.518
	s13.518-6.063,13.518-13.518C35.705,6.064,29.64,0,22.187,0z"/>
<path display="none" fill="#FFFFFF" d="M28.333,12.271c-0.873,0.875-2.158,1.087-3.232,0.64l-1.559,1.644l4.639,4.234
	c0.149,0.135,0.172,0.344,0.052,0.464l-1.237,1.239c-0.119,0.119-0.329,0.096-0.465-0.053l-4.201-4.604l-3.855,4.07l-0.01-0.013
	c-0.541,0.499-1.382,0.487-1.906-0.037c-0.525-0.523-0.538-1.366-0.039-1.907l-0.002-0.001l0.025-0.026
	c0.006-0.005,0.009-0.011,0.016-0.016c0.019-0.019,0.039-0.036,0.06-0.054l4.05-3.84L19.3,12.512
	c-0.488-0.359-1.014-0.576-1.493-0.63c0,0-1.675-0.097-1.804,2.464C16,14.4,15.964,14.409,15.921,14.367l-0.501-0.5
	c-0.044-0.044-0.097-0.126-0.112-0.182c-0.123-0.416-0.48-2.041,0.876-3.427l1.729-1.729c0.035-0.036,0.067-0.062,0.07-0.061
	c0.002,0.003,0.052,0.015,0.108,0.016c0.222,0.01,0.447-0.072,0.618-0.243c0.176-0.176,0.257-0.41,0.244-0.639
	c-0.003-0.057,0.017-0.132,0.053-0.167l0.941-0.942c0.037-0.036,0.1-0.029,0.144,0.015l1.483,1.481
	c0.045,0.044,0.05,0.108,0.014,0.146c0,0-0.528,0.527-0.715,0.716c-0.035,0.036-0.094,0.096-0.128,0.132L20.65,9.078
	c-0.037,0.036-0.11,0.056-0.167,0.054c-0.229-0.014-0.464,0.066-0.64,0.243c-0.196,0.195-0.279,0.47-0.24,0.724
	c0.051,0.436,0.238,0.909,0.543,1.358l1.641,1.495l1.724-1.635c-0.448-1.073-0.235-2.357,0.638-3.23
	c0.908-0.907,2.26-1.103,3.357-0.584l-1.322,1.321l0.001,0.001h-0.001l-0.259,0.964l0.706,0.706l0.964-0.259l0.001-0.001v0.001
	l1.322-1.321C29.435,10.013,29.242,11.363,28.333,12.271z"/>
<path display="none" fill="#D55352" d="M22.187,0.705c-5.515,0-10,4.486-10,10s4.485,10,10,10c5.514,0,10-4.486,10-10
	S27.701,0.705,22.187,0.705z"/>
<path display="none" d="M25.623,12.505c0.187,0.187,0.187,0.488,0,0.674l-0.961,0.961c-0.186,0.187-0.488,0.187-0.674,0l-1.802-1.8
	l-1.801,1.8c-0.187,0.187-0.488,0.187-0.675,0l-0.959-0.961c-0.188-0.186-0.188-0.488,0-0.674l1.8-1.801L18.75,8.903
	c-0.186-0.187-0.186-0.489,0-0.675l0.961-0.961c0.187-0.186,0.488-0.186,0.675,0l1.801,1.802l1.802-1.802
	c0.186-0.186,0.489-0.186,0.674,0l0.961,0.961c0.187,0.187,0.187,0.488,0,0.675l-1.802,1.801L25.623,12.505z"/>
<rect x="6.114" y="22.949" display="none" fill="none" width="32.146" height="5.568"/>
<text transform="matrix(1 0 0 1 17.1035 25.6816)" display="none" fill="#4D4D4D" font-family="'RopaSans-Regular'" font-size="4">Cancel</text>
<rect x="6.114" y="22.949" display="none" fill="none" width="32.146" height="5.568"/>
<text transform="matrix(1 0 0 1 15.6895 25.6816)" display="none" fill="#4D4D4D" font-family="'RopaSans-Regular'" font-size="4">Validate</text>
<rect x="6.114" y="22.949" display="none" fill="none" width="32.146" height="5.568"/>
<text transform="matrix(1 0 0 1 19.4854 25.6816)" display="none" fill="#4D4D4D" font-family="'RopaSans-Regular'" font-size="4">Yes</text>
<g>
	<g>
		<path fill="#D65452" d="M12.187,0.705v20h20v-20H12.187z M25.194,12.28c0.162,0.164,0.162,0.428,0,0.591l-0.841,0.84
			c-0.163,0.163-0.427,0.163-0.59,0l-1.576-1.575l-1.575,1.575c-0.163,0.163-0.427,0.163-0.59,0l-0.841-0.84
			c-0.163-0.163-0.163-0.427,0-0.591l1.575-1.575l-1.575-1.575c-0.163-0.163-0.163-0.428,0-0.591l0.839-0.84
			c0.165-0.163,0.429-0.163,0.592,0l1.575,1.577l1.576-1.576c0.163-0.163,0.427-0.163,0.59,0l0.841,0.84
			c0.162,0.163,0.162,0.428,0,0.591l-1.576,1.575L25.194,12.28z"/>
	</g>
</g>
<rect x="6.114" y="22.949" fill="none" width="32.146" height="5.568"/>
<text transform="matrix(1 0 0 1 20.0391 25.6816)" fill="#4D4D4D" font-family="'RopaSans-Regular'" font-size="4">No</text>
</svg>
